{
    "name": "BankAccount",
    "fields": [
        {
            "fieldName": "username",
            "fieldType": "String",
            "fieldValidateRules": [
                "required"
            ]
        },
        {
            "fieldName": "password",
            "fieldType": "String",
            "fieldValidateRules": [
                "required"
            ]
        },
        {
            "fieldName": "firstName",
            "fieldType": "String",
            "fieldValidateRules": [
                "required"
            ]
        },
        {
            "fieldName": "lastName",
            "fieldType": "String",
            "fieldValidateRules": [
                "required"
            ]
        },
        {
            "fieldName": "email",
            "fieldType": "String"
        },
        {
            "fieldName": "phone",
            "fieldType": "String"
        },
        {
            "fieldName": "address",
            "fieldType": "String"
        },
        {
            "fieldName": "postalCode",
            "fieldType": "String"
        },
        {
            "fieldName": "panNumber",
            "fieldType": "String"
        }
    ],
    "relationships": [],
    "changelogDate": "20180913032843",
    "entityTableName": "bank_account",
    "dto": "no",
    "pagination": "no",
    "service": "no",
    "jpaMetamodelFiltering": false,
    "fluentMethods": true,
    "clientRootFolder": "",
    "applications": "*",
    "microserviceName": "dwaccount"
}